[
 {
 "email": {
 "address": "crstock@umich.edu",
 "message": "hello there"
 },
 "phone": {
 "message": "knock knock Neo",
 "number": "+13157783862"
 },
 "serialNumber": "testSN",
 "Stride": {
 "headers": "{'Authorization': 'Bearer mgHjvanvXqvLS7oBcUZd'}",
 "payload": "{'body': {'version': 1, 'type': 'doc', 'content': [{'type': 'paragraph', 'content': [{'type': 'text', 'text': 'who is there?'}]}]}}",
 "url": "https://api.atlassian.com/site/3e5699f1-5465-45ad-a2f7-1f446682181d/conversation/5790a427-846e-5be6-a5f3-0290a0765da7/message"
 }
 },
 {
 "email": {
 "address": "cbroussa@umich.edu",
 "message": "hello there"
 },
 "phone": {
 "message": "knock knock Neo",
 "number": "+17342729107"
 },
 "serialNumber": "testCBroussa",
 "Stride": {
 "headers": "{'Authorization': 'Bearer RYXuCeAfTYRbg6x0Uh5x'}",
 "payload": "{'body': {'version': 1, 'type': 'doc', 'content': [{'type': 'paragraph', 'content': [{'type': 'text', 'text': 'who is there?'}]}]}}",
 "url": "https://api.atlassian.com/site/3e5699f1-5465-45ad-a2f7-1f446682181d/conversation/f525f979-e4f7-54ed-89a9-00151b1269e6/message"
 }
 }

 ]
